{
    "KPlugin": {
        "Authors": [
            {
                "Email": "devin@kde.org",
                "Name": "Devin Lin",
                "Name[az]": "Devin Lin",
                "Name[ca@valencia]": "Devin Lin",
                "Name[ca]": "Devin Lin",
                "Name[de]": "Devin Lin",
                "Name[en_GB]": "Devin Lin",
                "Name[es]": "Devin Lin",
                "Name[eu]": "Devin Lin",
                "Name[fi]": "Devin Lin",
                "Name[fr]": "Devin Lin",
                "Name[is]": "Devin Lin",
                "Name[it]": "Devin Lin",
                "Name[ka]": "Devin Lin",
                "Name[nl]": "Devin Lin",
                "Name[pl]": "Devin Lin",
                "Name[pt]": "Devin Lin",
                "Name[pt_BR]": "Devin Lin",
                "Name[sl]": "Devin Lin",
                "Name[sv]": "Devin Lin",
                "Name[tr]": "Devin Lin",
                "Name[uk]": "Devin Lin",
                "Name[x-test]": "xxDevin Linxx",
                "Name[zh_CN]": "Devin Lin"
            }
        ],
        "Description": "Power menu quick setting",
        "Description[ca@valencia]": "Configuració ràpida del menú d'energia",
        "Description[ca]": "Configuració ràpida del menú d'energia",
        "Description[en_GB]": "Power menu quick setting",
        "Description[es]": "Ajuste rápido del menú de energía",
        "Description[eu]": "Indar-menuaren ezarpen azkarra",
        "Description[fr]": "Configuration rapide pour le menu de gestion de l'énergie",
        "Description[it]": "Impostazione rapida del menu di alimentazione",
        "Description[ka]": "კვების მენიუს სწრაფი მორგება",
        "Description[nl]": "Snelle instelling energiemenu",
        "Description[pl]": "Szybkie ustawienie menu rozbudowanego",
        "Description[pt]": "Configuração rápida do menu de energia",
        "Description[sl]": "Hitre nastavitve porabe energije",
        "Description[sv]": "Snabbinställning av effektmeny",
        "Description[tr]": "Güç menüsü tez ayarı",
        "Description[uk]": "Швидке налаштовування меню живлення",
        "Description[x-test]": "xxPower menu quick settingxx",
        "Icon": "system-shutdown-symbolic",
        "Id": "org.kde.plasma.quicksetting.powermenu",
        "License": "GPL",
        "Name": "Power Menu",
        "Name[az]": "Güc menyusu",
        "Name[ca@valencia]": "Menú d'energia",
        "Name[ca]": "Menú d'energia",
        "Name[en_GB]": "Power Menu",
        "Name[es]": "Menú de energía",
        "Name[eu]": "Energia menua",
        "Name[fi]": "Virranhallintavalikko",
        "Name[fr]": "Menu « Énergie »",
        "Name[hi]": "शक्ती मेन्यू",
        "Name[hu]": "Energia menü",
        "Name[ia]": "Menu de Potentia",
        "Name[is]": "Aflvalmynd",
        "Name[it]": "Menu accensione",
        "Name[ka]": "კვების მენიუ",
        "Name[ko]": "전원 메뉴",
        "Name[nl]": "Energiemenu",
        "Name[nn]": "Kraftmeny",
        "Name[pa]": "ਪਾਵਰ ਮੇਨੂ",
        "Name[pl]": "Menu zasilania",
        "Name[pt]": "Menu de Energia",
        "Name[pt_BR]": "Menu de energia",
        "Name[ro]": "Meniu avansat",
        "Name[sk]": "Ponuka napájania",
        "Name[sl]": "Meni energije",
        "Name[sv]": "Strömmeny",
        "Name[tr]": "Güç Menüsü",
        "Name[uk]": "Меню живлення",
        "Name[x-test]": "xxPower Menuxx",
        "Name[zh_CN]": "电源菜单",
        "ServiceTypes": [
            "KPackage/GenericQML"
        ],
        "Version": "0.1",
        "Website": "https://kde.org"
    }
}
