{
    "KPlugin": {
        "Authors": [
            {
                "Email": "devin@kde.org",
                "Name": "Devin Lin",
                "Name[az]": "Devin Lin",
                "Name[ca@valencia]": "Devin Lin",
                "Name[ca]": "Devin Lin",
                "Name[de]": "Devin Lin",
                "Name[en_GB]": "Devin Lin",
                "Name[es]": "Devin Lin",
                "Name[eu]": "Devin Lin",
                "Name[fi]": "Devin Lin",
                "Name[fr]": "Devin Lin",
                "Name[is]": "Devin Lin",
                "Name[it]": "Devin Lin",
                "Name[ka]": "Devin Lin",
                "Name[nl]": "Devin Lin",
                "Name[pl]": "Devin Lin",
                "Name[pt]": "Devin Lin",
                "Name[pt_BR]": "Devin Lin",
                "Name[sl]": "Devin Lin",
                "Name[sv]": "Devin Lin",
                "Name[tr]": "Devin Lin",
                "Name[uk]": "Devin Lin",
                "Name[x-test]": "xxDevin Linxx",
                "Name[zh_CN]": "Devin Lin"
            }
        ],
        "Description": "Settings application quick setting",
        "Description[az]": "Ayarlar tətbiqinin sürətli ayarı",
        "Description[ca@valencia]": "Configuració ràpida de la configuració general",
        "Description[ca]": "Configuració ràpida de la configuració general",
        "Description[en_GB]": "Settings application quick setting",
        "Description[es]": "Ajuste rápido de la aplicación de preferencias",
        "Description[eu]": "Ezarpen aplikazioaren ezarpen azkarra",
        "Description[fi]": "Asetussovelluksen pika-asetus",
        "Description[fr]": "Configuration rapide de la configuration d'une application",
        "Description[ia]": "Preferentia rapide de Fixar applicationes",
        "Description[it]": "Impostazione delle impostazioni rapide",
        "Description[ka]": "პარამეტრების აპლიკაციის სწრაფი მორგება",
        "Description[ko]": "설정 프로그램 빠른 설정",
        "Description[nl]": "Snelle instelling van toepassing voor instellingen",
        "Description[pa]": "ਸੈਟਿੰਗਾਂ ਐਪਲੀਕੇਸ਼ਨ ਫੌਰੀ ਸੈਟਿੰਗ",
        "Description[pl]": "Szybkie ustawienie aplikacji",
        "Description[pt]": "Configuração rápida das definições",
        "Description[pt_BR]": "Configurações rápidas do aplicativo de configurações",
        "Description[sl]": "Hitre nastavitve aplikacij",
        "Description[sv]": "Snabbinställning av inställningsprogram",
        "Description[tr]": "Ayarlar uygulaması tez ayarı",
        "Description[uk]": "Швидке налаштовування параметрів програм",
        "Description[x-test]": "xxSettings application quick settingxx",
        "Icon": "settings-configure",
        "Id": "org.kde.plasma.quicksetting.settingsapp",
        "License": "GPL-2.0+",
        "Name": "Settings",
        "Name[az]": "Ayarlar",
        "Name[ca@valencia]": "Configuració",
        "Name[ca]": "Configuració",
        "Name[cs]": "Nastavení",
        "Name[de]": "Einstellungen",
        "Name[en_GB]": "Settings",
        "Name[es]": "Preferencias",
        "Name[eu]": "Ezarpenak",
        "Name[fi]": "Asetukset",
        "Name[fr]": "Configuration",
        "Name[ia]": "Preferentias",
        "Name[is]": "Stillingar",
        "Name[it]": "Impostazioni",
        "Name[ka]": "მორგება",
        "Name[ko]": "설정",
        "Name[nl]": "Instellingen",
        "Name[pa]": "ਸੈਟਿੰਗਾਂ",
        "Name[pl]": "Ustawienia",
        "Name[pt]": "Configuração",
        "Name[pt_BR]": "Configurações",
        "Name[ro]": "Configurări",
        "Name[sk]": "Nastavenia",
        "Name[sl]": "Nastavitve",
        "Name[sv]": "Inställningar",
        "Name[tr]": "Ayarlar",
        "Name[uk]": "Параметри",
        "Name[x-test]": "xxSettingsxx",
        "Name[zh_CN]": "设置",
        "ServiceTypes": [
            "KPackage/GenericQML"
        ],
        "Version": "0.1",
        "Website": "https://kde.org"
    }
}
