{
    "KPlugin": {
        "Authors": [
            {
                "Email": "devin@kde.org",
                "Name": "Devin Lin",
                "Name[az]": "Devin Lin",
                "Name[ca@valencia]": "Devin Lin",
                "Name[ca]": "Devin Lin",
                "Name[de]": "Devin Lin",
                "Name[en_GB]": "Devin Lin",
                "Name[es]": "Devin Lin",
                "Name[eu]": "Devin Lin",
                "Name[fi]": "Devin Lin",
                "Name[fr]": "Devin Lin",
                "Name[is]": "Devin Lin",
                "Name[it]": "Devin Lin",
                "Name[ka]": "Devin Lin",
                "Name[nl]": "Devin Lin",
                "Name[pl]": "Devin Lin",
                "Name[pt]": "Devin Lin",
                "Name[pt_BR]": "Devin Lin",
                "Name[sl]": "Devin Lin",
                "Name[sv]": "Devin Lin",
                "Name[tr]": "Devin Lin",
                "Name[uk]": "Devin Lin",
                "Name[x-test]": "xxDevin Linxx",
                "Name[zh_CN]": "Devin Lin"
            }
        ],
        "Description": "Flashlight quick setting",
        "Description[az]": "Fənər sürətli ayarı",
        "Description[ca@valencia]": "Configuració ràpida del llum de flaix",
        "Description[ca]": "Configuració ràpida del llum de flaix",
        "Description[en_GB]": "Flashlight quick setting",
        "Description[es]": "Ajuste rápido de la linterna",
        "Description[eu]": "Esku-argiaren ezarpen azkarra",
        "Description[fi]": "Taskulampun pika-asetus",
        "Description[fr]": "Configuration rapide de Flashlight",
        "Description[ia]": "Preferentia rapide de Flashlight",
        "Description[it]": "Impostazioni rapide torcia",
        "Description[ka]": "ფანარის სწრაფი მორგება",
        "Description[ko]": "플래시 빠른 설정",
        "Description[nl]": "Snelle instelling van zaklamp",
        "Description[pa]": "ਫਲੈਸ਼-ਲਾਈਟ ਫੌਰੀ ਸੈਟਿੰਗ",
        "Description[pl]": "Szybkie ustawienia latarki",
        "Description[pt]": "Configuração rápida da lanterna",
        "Description[pt_BR]": "Configurações rápidas da lanterna",
        "Description[sl]": "Hitre nastavitve svetilke",
        "Description[sv]": "Snabbinställning av ficklampa",
        "Description[tr]": "El feneri tez ayarı",
        "Description[uk]": "Швидке налаштовування спалаху",
        "Description[x-test]": "xxFlashlight quick settingxx",
        "Icon": "flashlight-on",
        "Id": "org.kde.plasma.quicksetting.flashlight",
        "License": "GPL-2.0+",
        "Name": "Flashlight",
        "Name[az]": "Fənər",
        "Name[ca@valencia]": "Llum de flaix",
        "Name[ca]": "Llum de flaix",
        "Name[cs]": "Světlo",
        "Name[de]": "Taschenlampe",
        "Name[en_GB]": "Flashlight",
        "Name[es]": "Linterna",
        "Name[eu]": "Esku-argia",
        "Name[fi]": "Taskulamppu",
        "Name[fr]": "Flashlight",
        "Name[ia]": "Flashlight (luce de fulgure)",
        "Name[is]": "Vasaljós",
        "Name[it]": "Torcia",
        "Name[ka]": "ფანარი",
        "Name[ko]": "플래시",
        "Name[nl]": "Zaklamp",
        "Name[pa]": "ਫਲੈਸ਼-ਲਾਈਟ",
        "Name[pl]": "Latarka",
        "Name[pt]": "Luz de Flash",
        "Name[pt_BR]": "Lanterna",
        "Name[ro]": "Lanternă",
        "Name[sk]": "Baterka",
        "Name[sl]": "Svetilka",
        "Name[sv]": "Ficklampa",
        "Name[tr]": "El Feneri",
        "Name[uk]": "Спалах",
        "Name[x-test]": "xxFlashlightxx",
        "Name[zh_CN]": "手电筒",
        "ServiceTypes": [
            "KPackage/GenericQML"
        ],
        "Version": "0.1",
        "Website": "https://kde.org"
    }
}
