{
    "KPlugin": {
        "Authors": [
            {
                "Email": "aleixpol@kde.org",
                "Name": "Aleix Pol i Gonzalez",
                "Name[az]": "Aleix Pol i Gonzalez",
                "Name[ca@valencia]": "Aleix Pol i Gonzalez",
                "Name[ca]": "Aleix Pol i Gonzalez",
                "Name[de]": "Aleix Pol i Gonzalez",
                "Name[en_GB]": "Aleix Pol i Gonzalez",
                "Name[es]": "Aleix Pol i Gonzalez",
                "Name[eu]": "Aleix Pol i Gonzalez",
                "Name[fi]": "Aleix Pol i Gonzalez",
                "Name[fr]": "Aleix Pol i Gonzalez",
                "Name[is]": "Aleix Pol i Gonzalez",
                "Name[it]": "Aleix Pol i Gonzalez",
                "Name[ka]": "Aleix Pol i Gonzalez",
                "Name[nl]": "Aleix Pol i Gonzalez",
                "Name[pl]": "Aleix Pol i Gonzalez",
                "Name[pt]": "Aleix Pol i Gonzalez",
                "Name[pt_BR]": "Aleix Pol i Gonzalez",
                "Name[sl]": "Aleix Pol i Gonzalez",
                "Name[sv]": "Aleix Pol i Gonzalez",
                "Name[tr]": "Aleix Pol i Gonzalez",
                "Name[uk]": "Aleix Pol i Gonzalez",
                "Name[x-test]": "xxAleix Pol i Gonzalezxx",
                "Name[zh_CN]": "Aleix Pol i Gonzalez"
            }
        ],
        "Description": "Screen recording quick setting",
        "Description[ca@valencia]": "Configuració ràpida de la gravació de pantalla",
        "Description[ca]": "Configuració ràpida de l'enregistrament de pantalla",
        "Description[en_GB]": "Screen recording quick setting",
        "Description[es]": "Ajuste rápido de grabación de la pantalla",
        "Description[eu]": "Pantaila grabatzeko ezarpen azkarra",
        "Description[fr]": "Configuration rapide de l'enregistrement d'écran",
        "Description[it]": "Impostazioni rapide di registrazione dello schermo",
        "Description[ka]": "ეკრანის ჩაწერის სწრაფი მორგება",
        "Description[nl]": "Snelle instelling van scherm opnemen",
        "Description[pl]": "Szybkie ustawienia nagrywania ekranu",
        "Description[pt]": "Configuração rápida da gravação do ecrã",
        "Description[sl]": "Hitre nastavitve snemanja zaslona",
        "Description[sv]": "Snabbinställning av skärminspelning",
        "Description[tr]": "Ekran kaydetme tez ayarı",
        "Description[uk]": "Швидке налаштовування запису з екрана",
        "Description[x-test]": "xxScreen recording quick settingxx",
        "Icon": "media-record",
        "Id": "org.kde.plasma.quicksetting.record",
        "License": "GPL-2.0+",
        "Name": "Record Screen",
        "Name[ca@valencia]": "Grava la pantalla",
        "Name[ca]": "Enregistra la pantalla",
        "Name[en_GB]": "Record Screen",
        "Name[es]": "Grabar la pantalla",
        "Name[eu]": "Grabatu pantaila",
        "Name[fr]": "Enregistrer l'écran",
        "Name[it]": "Registra schermo",
        "Name[ka]": "ეკრანის ჩასწერა",
        "Name[nl]": "Scherm opnemen",
        "Name[pl]": "Nagraj ekran",
        "Name[pt]": "Gravar o Ecrã",
        "Name[sl]": "Posnemi zaslon",
        "Name[sv]": "Spela in bildskärm",
        "Name[tr]": "Ekranı Kaydet",
        "Name[uk]": "Запис з екрана",
        "Name[x-test]": "xxRecord Screenxx",
        "ServiceTypes": [
            "KPackage/GenericQML"
        ],
        "Version": "0.1",
        "Website": "https://kde.org"
    }
}
