{
    "KPlugin": {
        "Authors": [
            {
                "Email": "mart@kde.org",
                "Name": "Marco Martin",
                "Name[az]": "Marco Martin",
                "Name[ca@valencia]": "Marco Martin",
                "Name[ca]": "Marco Martin",
                "Name[cs]": "Marco Martin",
                "Name[de]": "Marco Martin",
                "Name[en_GB]": "Marco Martin",
                "Name[es]": "Marco Martin",
                "Name[eu]": "Marco Martin",
                "Name[fi]": "Marco Martin",
                "Name[fr]": "Marco Martin",
                "Name[is]": "Marco Martin",
                "Name[it]": "Marco Martin",
                "Name[ka]": "Marco Martin",
                "Name[nl]": "Marco Martin",
                "Name[pl]": "Marco Martin",
                "Name[pt]": "Marco Martin",
                "Name[pt_BR]": "Marco Martin",
                "Name[sl]": "Marco Martin",
                "Name[sv]": "Marco Martin",
                "Name[tr]": "Marco Martin",
                "Name[uk]": "Marco Martin",
                "Name[x-test]": "xxMarco Martinxx",
                "Name[zh_CN]": "Marco Martin"
            }
        ],
        "Category": "Containments",
        "Description": "Top panel for Plasma Mobile",
        "Description[ca@valencia]": "Quadro superior per a Plasma Mobile",
        "Description[ca]": "Plafó superior per al Plasma Mobile",
        "Description[en_GB]": "Top panel for Plasma Mobile",
        "Description[es]": "Panel superior para Plasma Mobile",
        "Description[eu]": "Plasma Mugikorrerako goiko panela",
        "Description[fr]": "Panneau supérieur pour Plasma Mobile",
        "Description[it]": "Pannello superiore per Plasma Mobile",
        "Description[ka]": "Plasma Mobile-ის ზედა პანელი",
        "Description[nl]": "Hoofdpaneel voor Plasma-mobiel",
        "Description[pl]": "Górny panel dla Przenośnej Plazmy",
        "Description[pt]": "Painel de topo do Plasma Mobile",
        "Description[sl]": "Vrhnja plošča za Plasma Mobile",
        "Description[sv]": "Överpanel för Plasma mobil",
        "Description[tr]": "Plasma Mobile için üst panel",
        "Description[uk]": "Верхня панель для мобільної Плазми",
        "Description[x-test]": "xxTop panel for Plasma Mobilexx",
        "Id": "org.kde.phone.panel",
        "License": "GPLv2+",
        "Name": "Phone Panel",
        "Name[ast]": "Panel del teléfonu",
        "Name[az]": "Telefon paneli",
        "Name[ca@valencia]": "Quadro del telèfon",
        "Name[ca]": "Plafó del telèfon",
        "Name[cs]": "Panel telefonu",
        "Name[da]": "Panel til telefon",
        "Name[en_GB]": "Phone Panel",
        "Name[es]": "Panel del teléfono",
        "Name[et]": "Telefoni paneel",
        "Name[eu]": "Telefonoko panela",
        "Name[fi]": "Phonen paneeli",
        "Name[fr]": "Tableau de bord du téléphone",
        "Name[gl]": "Panel do teléfono",
        "Name[hi]": "फोन पैनल",
        "Name[hu]": "Telefon panel",
        "Name[ia]": "Panello de telephono",
        "Name[id]": "Panel Ponsel",
        "Name[is]": "Símaspjald",
        "Name[it]": "Pannello del telefono",
        "Name[ka]": "ტელეფონის პანელი",
        "Name[ko]": "전화 패널",
        "Name[lt]": "Telefono skydelis",
        "Name[nl]": "Telefoonpaneel",
        "Name[nn]": "Telefonpanel",
        "Name[pa]": "ਫ਼ੋਨ ਦਾ ਪੈਨਲ",
        "Name[pl]": "Panel telefonu",
        "Name[pt]": "Painel do Telefone",
        "Name[pt_BR]": "Painel do celular",
        "Name[ro]": "Panoul telefonului",
        "Name[ru]": "Панель телефона",
        "Name[sk]": "Panel telefónu",
        "Name[sl]": "Kontrolna plošča telefona",
        "Name[sv]": "Telefonpanel",
        "Name[tr]": "Telefon Paneli",
        "Name[uk]": "Панель телефону",
        "Name[x-test]": "xxPhone Panelxx",
        "Name[zh_CN]": "手机面板",
        "Name[zh_TW]": "手機面板",
        "ServiceTypes": [
            "Plasma/Applet",
            "Plasma/Containment"
        ],
        "Version": "",
        "Website": ""
    },
    "Keywords": "",
    "X-KDE-ParentApp": "",
    "X-Plasma-API": "declarativeappletscript",
    "X-Plasma-ContainmentType": "Panel",
    "X-Plasma-MainScript": "ui/main.qml"
}
